0.000000,1500.000000,0.000000
0.050000,1500.000000,450.000000
0.100000,1500.000000,900.000000
0.150000,1500.000000,1350.000000
0.200000,1500.000000,1800.000000
0.250000,1500.000000,2250.000000
0.300000,1500.000000,2700.000000
0.350000,1500.000000,3150.000000
0.400000,1500.000000,3600.000000
0.450000,1500.000000,4050.000000
0.500000,1500.000000,4500.000000
0.550000,1500.000000,4950.000000
0.600000,1500.000000,5400.000000
0.650000,1500.000000,5850.000000
0.700000,1500.000000,6300.000000
0.750000,1500.000000,6750.000000
0.800000,1500.000000,7200.000000
0.850000,1500.000000,7650.000000
0.900000,1500.000000,8100.000000
0.950000,1500.000000,8550.000000
1.000000,1500.000000,9000.000000
1.050000,1500.000000,9450.000000
1.100000,1500.000000,9900.000000
1.150000,1500.000000,10350.000000
1.200000,1500.000000,10800.000000
1.250000,1500.000000,11250.000000
1.300000,1500.000000,11700.000000
1.350000,1500.000000,12150.000000
1.400000,1500.000000,12600.000000
1.450000,1500.000000,13050.000000
1.500000,1500.000000,13500.000000
1.550000,1500.000000,13950.000000
1.600000,1500.000000,14400.000000
1.650000,1500.000000,14850.000000
1.700000,1500.000000,15300.000000
1.750000,1500.000000,15750.000000
1.800000,1500.000000,16200.000000
1.850000,1500.000000,16650.000000
1.900000,1500.000000,17100.000000
1.950000,1500.000000,17550.000000
2.000000,1500.000000,18000.000000
2.050000,1500.000000,18450.000000
2.100000,1500.000000,18900.000000
2.150000,1500.000000,19350.000000
2.200000,1500.000000,19800.000000
2.250000,1500.000000,20250.000000
2.300000,1500.000000,20700.000000
2.350000,1500.000000,21150.000000
2.400000,1500.000000,21600.000000
2.450000,1500.000000,22050.000000
2.500000,1500.000000,22500.000000
2.550000,1500.000000,22950.000000
2.600000,1500.000000,23400.000000
2.650000,1500.000000,23850.000000
2.700000,1500.000000,24300.000000
2.750000,1500.000000,24750.000000
2.800000,1500.000000,25200.000000
2.850000,1500.000000,25650.000000
2.900000,1500.000000,26100.000000
2.950000,1500.000000,26550.000000
3.000000,1500.000000,27000.000000
3.050000,1500.000000,27450.000000
3.100000,1500.000000,27900.000000
3.150000,1500.000000,28350.000000
3.200000,1500.000000,28800.000000
3.250000,1500.000000,29250.000000
3.300000,1500.000000,29700.000000
3.350000,1500.000000,30150.000000
3.400000,1500.000000,30600.000000
3.450000,1500.000000,31050.000000
3.500000,1500.000000,31500.000000
3.550000,1500.000000,31950.000000
3.600000,1500.000000,32400.000000
3.650000,1500.000000,32850.000000
3.700000,1500.000000,33300.000000
3.750000,1500.000000,33750.000000
3.800000,1500.000000,34200.000000
3.850000,1500.000000,34650.000000
3.900000,1500.000000,35100.000000
3.950000,1500.000000,35550.000000
4.000000,1500.000000,36000.000000
4.050000,0.000000,36000.000000
4.100000,0.000000,36000.000000
4.150000,0.000000,36000.000000
4.200000,0.000000,36000.000000
4.250000,0.000000,36000.000000
4.300000,0.000000,36000.000000
4.350000,0.000000,36000.000000
4.400000,0.000000,36000.000000
4.450000,0.000000,36000.000000
4.500000,0.000000,36000.000000
4.550000,0.000000,36000.000000
4.600000,0.000000,36000.000000
4.650000,0.000000,36000.000000
4.700000,0.000000,36000.000000
4.750000,0.000000,36000.000000
4.800000,0.000000,36000.000000
4.850000,0.000000,36000.000000
4.900000,0.000000,36000.000000
4.950000,0.000000,36000.000000
5.000000,0.000000,36000.000000
5.050000,0.000000,36000.000000
5.100000,0.000000,36000.000000
5.150000,0.000000,36000.000000
5.200000,0.000000,36000.000000
5.250000,0.000000,36000.000000
5.300000,0.000000,36000.000000
5.350000,0.000000,36000.000000
5.400000,0.000000,36000.000000
5.450000,0.000000,36000.000000
5.500000,0.000000,36000.000000
5.550000,0.000000,36000.000000
5.600000,0.000000,36000.000000
5.650000,0.000000,36000.000000
5.700000,0.000000,36000.000000
5.750000,0.000000,36000.000000
5.800000,0.000000,36000.000000
5.850000,0.000000,36000.000000
5.900000,0.000000,36000.000000
5.950000,0.000000,36000.000000
6.000000,0.000000,36000.000000
6.050000,0.000000,36000.000000
6.100000,0.000000,36000.000000
6.150000,0.000000,36000.000000
6.200000,0.000000,36000.000000
6.250000,0.000000,36000.000000
6.300000,0.000000,36000.000000
6.350000,0.000000,36000.000000
6.400000,0.000000,36000.000000
6.450000,0.000000,36000.000000
6.500000,0.000000,36000.000000
6.550000,0.000000,36000.000000
6.600000,0.000000,36000.000000
6.650000,0.000000,36000.000000
6.700000,0.000000,36000.000000
6.750000,0.000000,36000.000000
6.800000,0.000000,36000.000000
6.850000,0.000000,36000.000000
6.900000,0.000000,36000.000000
6.950000,0.000000,36000.000000
7.000000,0.000000,36000.000000
7.050000,-3000.000000,35100.000000
7.100000,-3000.000000,34200.000000
7.150000,-3000.000000,33300.000000
7.200000,-3000.000000,32400.000000
7.250000,-3000.000000,31500.000000
7.300000,-3000.000000,30600.000000
7.350000,-3000.000000,29700.000000
7.400000,-3000.000000,28800.000000
7.450000,-3000.000000,27900.000000
7.500000,-3000.000000,27000.000000
7.550000,-3000.000000,26100.000000
7.600000,-3000.000000,25200.000000
7.650000,-3000.000000,24300.000000
7.700000,-3000.000000,23400.000000
7.750000,-3000.000000,22500.000000
7.800000,-3000.000000,21600.000000
7.850000,-3000.000000,20700.000000
7.900000,-3000.000000,19800.000000
7.950000,-3000.000000,18900.000000
8.000000,-3000.000000,18000.000000
8.050000,0.000000,18000.000000
8.100000,0.000000,18000.000000
8.150000,0.000000,18000.000000
8.200000,0.000000,18000.000000
8.250000,0.000000,18000.000000
8.300000,0.000000,18000.000000
8.350000,0.000000,18000.000000
8.400000,0.000000,18000.000000
8.450000,0.000000,18000.000000
8.500000,0.000000,18000.000000
8.550000,0.000000,18000.000000
8.600000,0.000000,18000.000000
8.650000,0.000000,18000.000000
8.700000,0.000000,18000.000000
8.750000,0.000000,18000.000000
8.800000,0.000000,18000.000000
8.850000,0.000000,18000.000000
8.900000,0.000000,18000.000000
8.950000,0.000000,18000.000000
9.000000,0.000000,18000.000000
9.050000,0.000000,18000.000000
9.100000,0.000000,18000.000000
9.150000,0.000000,18000.000000
9.200000,0.000000,18000.000000
9.250000,0.000000,18000.000000
9.300000,0.000000,18000.000000
9.350000,0.000000,18000.000000
9.400000,0.000000,18000.000000
9.450000,0.000000,18000.000000
9.500000,0.000000,18000.000000
9.550000,0.000000,18000.000000
9.600000,0.000000,18000.000000
9.650000,0.000000,18000.000000
9.700000,0.000000,18000.000000
9.750000,0.000000,18000.000000
9.800000,0.000000,18000.000000
9.850000,0.000000,18000.000000
9.900000,0.000000,18000.000000
9.950000,0.000000,18000.000000
10.000000,0.000000,18000.000000
10.050000,0.000000,18000.000000
10.100000,0.000000,18000.000000
10.150000,0.000000,18000.000000
10.200000,0.000000,18000.000000
10.250000,0.000000,18000.000000
10.300000,0.000000,18000.000000
10.350000,0.000000,18000.000000
10.400000,0.000000,18000.000000
10.450000,0.000000,18000.000000
10.500000,0.000000,18000.000000
10.550000,0.000000,18000.000000
10.600000,0.000000,18000.000000
10.650000,0.000000,18000.000000
10.700000,0.000000,18000.000000
10.750000,0.000000,18000.000000
10.800000,0.000000,18000.000000
10.850000,0.000000,18000.000000
10.900000,0.000000,18000.000000
10.950000,0.000000,18000.000000
11.000000,0.000000,18000.000000
11.050000,75.000000,18022.500000
11.100000,150.000000,18090.000000
11.150000,225.000000,18202.500000
11.200000,300.000000,18360.000000
11.250000,375.000000,18562.500000
11.300000,450.000000,18810.000000
11.350000,525.000000,19102.500000
11.400000,600.000000,19440.000000
11.450000,675.000000,19822.500000
11.500000,750.000000,20250.000000
11.550000,825.000000,20722.500000
11.600000,900.000000,21240.000000
11.650000,975.000000,21802.500000
11.700000,1050.000000,22410.000000
11.750000,1125.000000,23062.500000
11.800000,1200.000000,23760.000000
11.850000,1275.000000,24502.500000
11.900000,1350.000000,25290.000000
11.950000,1425.000000,26122.500000
12.000000,1500.000000,27000.000000
12.050000,1425.000000,27427.500000
12.100000,1350.000000,28237.500000
12.150000,1275.000000,29385.000000
12.200000,1200.000000,30825.000000
12.250000,1125.000000,32512.500000
12.300000,1050.000000,34402.500000
12.350000,975.000000,36450.000000
12.400000,900.000000,38610.000000
12.450000,825.000000,40837.500000
12.500000,750.000000,43087.500000
12.550000,675.000000,45315.000000
12.600000,600.000000,47475.000000
12.650000,525.000000,49522.500000
12.700000,450.000000,51412.500000
12.750000,375.000000,53100.000000
12.800000,300.000000,54540.000000
12.850000,225.000000,55687.500000
12.900000,150.000000,56497.500000
12.950000,75.000000,56925.000000
13.000000,0.000000,56925.000000
13.050000,0.000000,56925.000000
13.100000,0.000000,56925.000000
13.150000,0.000000,56925.000000
13.200000,0.000000,56925.000000
13.250000,0.000000,56925.000000
13.300000,0.000000,56925.000000
13.350000,0.000000,56925.000000
13.400000,0.000000,56925.000000
13.450000,0.000000,56925.000000
13.500000,0.000000,56925.000000
13.550000,0.000000,56925.000000
13.600000,0.000000,56925.000000
13.650000,0.000000,56925.000000
13.700000,0.000000,56925.000000
13.750000,0.000000,56925.000000
13.800000,0.000000,56925.000000
13.850000,0.000000,56925.000000
13.900000,0.000000,56925.000000
13.950000,0.000000,56925.000000
14.000000,0.000000,56925.000000
14.050000,0.000000,56925.000000
14.100000,0.000000,56925.000000
14.150000,0.000000,56925.000000
14.200000,0.000000,56925.000000
14.250000,0.000000,56925.000000
14.300000,0.000000,56925.000000
14.350000,0.000000,56925.000000
14.400000,0.000000,56925.000000
14.450000,0.000000,56925.000000
14.500000,0.000000,56925.000000
14.550000,0.000000,56925.000000
14.600000,0.000000,56925.000000
14.650000,0.000000,56925.000000
14.700000,0.000000,56925.000000
14.750000,0.000000,56925.000000
14.800000,0.000000,56925.000000
14.850000,0.000000,56925.000000
14.900000,0.000000,56925.000000
14.950000,0.000000,56925.000000
15.000000,0.000000,56925.000000
